Tidy Time Series Forecasting | The Code Forest
…
train_valid <- rolling_origin(
  sales_df,
  initial = 12 * 22, # 22 years of history
  assess = 12, # assess 12 month ahead forecast
  cumulative = TRUE #continue to build training set across time
) %>%
  mutate(
    train = map(splits, training), # split training
    valid = map(splits, testing) # split validation
  )

Let’s print out the train_valid object to see what’s going on.

## # Rolling origin forecast resampling 
## # A tibble: 34 x 4
##    splits           id      train              valid            
##  * <list>           <chr>   <list>             <list>           
##  1 <split [264/12]> Slice01 <tibble [264 × 2]> <tibble [12 × 2]>
##  2 <split [265/12]> Slice02 <tibble [265 × 2]> <tibble [12 × 2]>
##  3 <split [266/12]> Slice03 <tibble [266 × 2]> <tibble [12 × 2]>
##  4 <split [267/12]> Slice04 <tibble [267 × 2]> <tibble [12 × 2]>
##  5 <split [268/12]> Slice05 <tibble [268 × 2]> <tibble [12 × 2]>
##  6 <split [269/12]> Slice06 <tibble [269 × 2]> <tibble [12 × 2]>
##  7 <split [270/12]> Slice07 <tibble [270 × 2]> <tibble [12 × 2]>
##  8 <split [271/12]> Slice08 <tibble [271 × 2]> <tibble [12 × 2]>
##  9 <split [272/12]> Slice09 <tibble [272 × 2]> <tibble [12 × 2]>
## 10 <split [273/12]> Slice10 <tibble [273 × 2]> <tibble [12 × 2]>
## # … with 24 more rows
…
train_valid <- rolling_origin(
  sales_xreg,
  initial = floor(4.5 * 365), # 4.5 years of training
  assess = 90, # assess based on 90-day ahead forecasts
  cumulative = TRUE # continue to build training set across time
) %>%
  mutate(
    train = map(splits, training), # split training
    valid = map(splits, testing) # split validation
  )

print(train_valid)

## # Rolling origin forecast resampling 
## # A tibble: 95 x 4
##    splits            id      train                valid            
##  * <list>            <chr>   <list>               <list>           
##  1 <split [1.6K/90]> Slice01 <tibble [1,642 × 2]> <tibble [90 × 2]>
##  2 <split [1.6K/90]> Slice02 <tibble [1,643 × 2]> <tibble [90 × 2]>
##  3 <split [1.6K/90]> Slice03 <tibble [1,644 × 2]> <tibble [90 × 2]>
##  4 <split [1.6K/90]> Slice04 <tibble [1,645 × 2]> <tibble [90 × 2]>
##  5 <split [1.6K/90]> Slice05 <tibble [1,646 × 2]> <tibble [90 × 2]>
##  6 <split [1.6K/90]> Slice06 <tibble [1,647 × 2]> <tibble [90 × 2]>
##  7 <split [1.6K/90]> Slice07 <tibble [1,648 × 2]> <tibble [90 × 2]>
##  8 <split [1.6K/90]> Slice08 <tibble [1,649 × 2]> <tibble [90 × 2]>
##  9 <split [1.6K/90]> Slice09 <tibble [1,650 × 2]> <tibble [90 × 2]>
## 10 <split [1.7K/90]> Slice10 <tibble [1,651 × 2]> <tibble [90 × 2]>
## # … with 85 more rows
…
# Replicate and 'nest' each resulting copy of xreg_df 
split_ids <- 
  map_dfr(1:nrow(train_valid), function(x) xreg_df) %>%
  mutate(id = rep(train_valid$id, each = nrow(xreg_df))) %>%
  group_by(id) %>%
  nest() %>%
  rename(xreg = data)

# Join by the id column
train_valid_xreg <- inner_join(train_valid, split_ids)

print(train_valid_xreg)

## # Rolling origin forecast resampling 
## # A tibble: 95 x 5
##    splits          id      train             valid          xreg           
##    <list>          <chr>   <list>            <list>         <list>         
##  1 <split [1.6K/9… Slice01 <tibble [1,642 ×… <tibble [90 ×… <tibble [145 ×…
##  2 <split [1.6K/9… Slice02 <tibble [1,643 ×… <tibble [90 ×… <tibble [145 ×…
##  3 <split [1.6K/9… Slice03 <tibble [1,644 ×… <tibble [90 ×… <tibble [145 ×…
##  4 <split [1.6K/9… Slice04 <tibble [1,645 ×… <tibble [90 ×… <tibble [145 ×…
##  5 <split [1.6K/9… Slice05 <tibble [1,646 ×… <tibble [90 ×… <tibble [145 ×…
##  6 <split [1.6K/9… Slice06 <tibble [1,647 ×… <tibble [90 ×… <tibble [145 ×…
##  7 <split [1.6K/9… Slice07 <tibble [1,648 ×… <tibble [90 ×… <tibble [145 ×…
##  8 <split [1.6K/9… Slice08 <tibble [1,649 ×… <tibble [90 ×… <tibble [145 ×…
##  9 <split [1.6K/9… Slice09 <tibble [1,650 ×… <tibble [90 ×… <tibble [145 ×…
## 10 <split [1.7K/9… Slice10 <tibble [1,651 ×… <tibble [90 ×… <tibble [145 ×…
## # … with 85 more rows
…
